43.97796803102927
-10.11956450202991
-1.4474687821707302
-0.6558820583969512
0.0022660333191444576
1.313338593965019
1.6648678044350609
1.5570565597164712
1.1601891073634778
0.15663340281096397
0.7632479052050284
0.9518128746068433
0.5314858075665091
