-7.238035 -0.169662 -1.105382 0.405774 0.432738 0.170941 0.740840 0.853126 0.007522 0.067841 -0.022250 -0.423418 
-8.255984 -0.676088 0.045422 0.793182 -0.841820 -0.222774 -0.323668 0.552448 -0.171917 -0.326347 -0.639641 -0.112537 
-7.505065 -1.430651 -1.387726 -0.661462 -1.002106 -0.279838 0.656242 0.175122 -0.793192 0.340677 0.191930 -0.819195 
-7.607545 -1.210854 -0.868415 -0.752497 -0.441531 -0.574808 -0.055553 0.222547 -1.129681 0.402809 0.321870 0.612674 
-8.496504 -2.692358 -1.310560 -1.151469 -0.471345 0.810011 0.854187 0.881653 0.711367 0.857772 0.095982 0.723484 
-9.797475 -2.221941 -2.009376 -0.543573 -0.497828 0.244458 0.555512 0.973444 0.627140 0.945586 0.462030 1.264848 
-9.495065 -1.723844 -0.958546 -0.618519 -0.917948 0.042106 -0.002262 0.906486 0.532796 0.119250 0.058900 0.721789 
-8.970233 -2.339339 -1.078581 0.012490 0.624779 0.931294 -0.118015 -1.288395 -1.002027 -0.024397 0.276579 0.982889 
-7.321146 -0.948558 -0.913295 -0.057098 -0.810400 -0.058608 1.004073 -0.656861 -1.458766 -0.906788 -0.412647 0.267597 
-7.126531 -0.752686 -1.469312 0.224837 -0.296956 0.241781 -0.176318 0.117187 -0.383102 0.124170 0.524882 -0.865188 
-7.864476 -2.221996 -1.178044 0.388874 0.480654 0.868835 -0.824167 -0.988939 -0.303236 -0.384643 0.508870 0.305308 
-8.100284 -0.915896 0.000485 0.308189 -0.326991 1.474106 1.237818 0.598706 -1.188263 0.394699 0.734313 0.242752 
-7.896955 -1.523648 -1.391608 0.138450 1.246140 1.544832 0.457042 0.841416 0.408370 0.093023 -0.051002 0.267126 
-8.006629 -0.063211 -0.455655 -0.382982 0.079314 -0.239468 -0.090168 0.411802 -0.223696 0.148276 1.091096 0.554264 
-8.221697 -0.970529 -0.787462 -1.205110 0.208843 0.790831 -0.324776 1.556356 0.683121 0.299228 1.200618 0.327348 
-8.083624 -0.889410 -0.700595 -0.835366 0.027666 0.342579 -0.315350 -0.137538 -0.964657 0.410335 0.034315 0.067764 
-8.911046 -0.585539 -0.849031 -0.714991 0.268880 0.928316 0.004261 0.406355 0.894518 1.433396 0.412435 0.584176 
-8.255674 -2.016770 -1.230300 0.256891 -0.143354 0.799856 1.258676 0.516220 0.298441 0.122020 0.338125 -0.021519 
-7.971886 -1.068598 -0.327142 0.443284 -0.198588 0.340128 1.030443 -0.129295 -0.536624 -0.333069 -0.075994 1.390432 
-7.879753 -0.808207 -1.250554 0.924455 0.055929 1.095869 0.464280 -0.202482 -0.152144 0.378981 -0.651578 0.351055 
-7.561682 -0.965298 -1.252065 -1.317645 0.046568 1.414566 0.929112 -0.590605 -0.874960 1.000805 -0.232523 0.142996 
-8.736234 -1.869627 -1.171353 0.226844 -0.531136 -0.389289 -0.116599 -0.044571 0.508093 1.264332 -0.239599 0.010030 
-7.571007 -1.795040 -2.248578 -0.314011 -0.338728 -1.140445 -0.527610 -0.824738 0.562960 0.384558 -0.429608 -0.423778 
-7.611793 -1.088833 -1.063589 0.177595 0.671284 -0.034750 0.198481 0.067239 0.119360 0.199022 0.408348 0.513942 
-7.160622 -0.645606 -2.060907 -0.488485 0.084271 -0.122551 0.896123 1.920072 1.235768 0.631756 1.222687 0.757353 
-7.089951 1.005472 -0.084123 -0.827137 -0.487418 -0.926958 -0.900806 0.414850 -0.015450 0.793790 0.798307 -0.573930 
-6.571738 0.717337 -0.564457 -0.766492 -1.496625 0.607015 -0.431184 -0.526132 -0.547547 0.284059 0.359471 -0.207216 
-7.415754 -0.539711 -0.670690 0.224864 -0.768203 0.352877 0.388644 -0.929328 -0.864909 -0.305399 -0.072512 0.069435 
-8.590588 -1.455070 -0.644690 -0.739885 -0.991276 0.322364 0.553757 0.131311 -0.442891 0.087190 -0.129281 -0.673184 
-7.206074 -1.740599 -0.677626 -0.694398 -0.446537 -0.223126 0.028622 0.050290 -0.302768 0.373770 0.072061 -0.071145 
-7.194351 -0.593563 -0.863869 -0.476264 -0.460350 -0.991108 0.125256 -0.032662 -0.620364 -1.053335 0.276898 -0.339495 
-8.422590 -2.175699 -1.249465 -0.285588 0.892842 0.328297 -0.218803 -0.052619 -0.938224 -0.963739 -0.606422 -0.639836 
-8.006716 -1.056454 -1.235488 -0.513456 -0.857893 -0.738257 -0.191038 -1.044442 0.314104 -0.228012 0.443259 1.379807 
-7.250031 -0.751130 -0.919070 -0.215616 -1.759566 -1.678833 0.259719 0.257496 0.513552 0.418709 -0.716495 -0.736758 
-8.327830 -1.280015 -1.388447 -0.958309 -1.803127 -1.572157 0.170641 -0.267049 0.534083 0.332509 0.006509 0.167125 
-6.886908 0.286289 -1.642201 -0.976083 0.193174 -0.404682 -1.068594 -0.509177 0.195021 -1.114381 0.804149 0.968936 
-7.308998 -0.236456 -1.717568 -0.002485 0.103616 -0.885609 -1.399113 -0.450266 -1.779255 -0.300819 0.648772 -0.523157 
-6.649308 -1.454937 -1.586211 -0.947085 -0.354867 -1.116663 0.214529 0.745727 -0.349655 -0.423148 0.379899 0.388490 
-8.186888 -2.082194 -1.092376 -0.067579 0.101066 -0.278701 1.015854 0.995002 -0.344704 -0.609527 -0.318091 0.074843 
-7.942521 -2.414572 -1.522049 0.094502 -0.451093 -0.722895 -0.526494 -0.514890 0.411907 -0.227004 -0.890938 -1.268439 
-8.058232 -2.402378 -1.989892 -0.858798 0.148890 -0.297473 -0.950916 0.123538 0.404232 1.142415 1.035666 -0.431871 
-8.361274 -1.588056 -0.950683 -0.734104 -0.762680 0.502257 0.396473 0.286948 -0.616029 -0.128754 -0.259924 0.270690 
-7.810536 -0.270971 0.386111 0.074497 -1.713801 -1.367233 0.334469 -0.041975 -0.665495 -0.521354 0.326940 0.563609 
-8.831139 -1.701569 -0.478506 -0.219459 -0.727502 -1.043279 -0.645259 0.993446 -0.355055 -0.920394 -0.149105 -0.795634 
-7.731688 -0.188936 -0.562361 0.996973 -0.313057 -1.559060 -1.595796 -0.295431 1.241445 0.119152 -0.051117 0.124958 
-9.480048 -0.738367 -1.190398 0.428349 0.548850 -0.377928 -0.037109 -0.900099 -0.029624 -0.506234 -0.794591 -0.593730 
-9.341100 -1.004419 -1.797236 -1.114880 -1.170969 -0.851046 -0.934573 -0.449809 0.076072 0.142581 0.021016 -1.260273 
-7.511862 -1.050901 -1.080156 -0.395761 -1.624199 0.003654 0.136525 0.444878 -0.041542 -0.076172 -0.746484 -0.496207 
-6.478429 -0.122267 -1.032444 -1.226628 -1.788652 -0.136139 0.369923 0.307838 -0.471245 -0.710780 -0.513990 0.506469 
-8.841595 -0.636525 -0.900053 -0.973951 -0.469095 -1.001333 -0.358667 0.392646 -0.308248 0.340005 -0.372030 0.665493 
-9.320133 -1.562637 -0.058082 0.626995 -1.137226 -1.462727 -1.641862 -0.450977 0.499126 0.555934 0.985856 -0.262684 
-8.446341 -1.152184 -1.786069 -1.099206 -0.965284 -0.651704 -1.201778 -0.835298 -0.100222 -0.353261 0.265879 -0.128928 
-8.985509 -2.410590 -1.648676 -0.399162 0.566050 0.988595 0.448984 -0.560790 -0.181256 -0.189596 -0.677186 0.046036 
-8.682129 -1.190993 -1.545948 -0.108165 0.553281 0.438727 1.133682 -0.500902 -0.255891 1.406568 -0.036797 -0.293969 
-8.017220 -1.530256 -1.888630 -0.651545 -0.610210 0.070998 0.907575 0.281385 -0.686019 0.342233 0.433416 1.155321 
-8.626523 -1.303818 -1.412685 -0.064074 0.609278 0.635342 0.908028 0.686288 -0.023353 0.481910 0.703390 1.659703 
-6.795854 -1.989058 -1.231782 -0.672424 -0.980555 0.530593 0.716301 0.851985 0.121046 -0.104407 0.322616 0.930987 
-7.664473 -1.670479 -1.668770 -0.737437 -0.237874 0.180785 -0.669562 -0.001785 -0.621407 -0.504430 0.037481 -0.280539 
-9.152124 -2.303731 -0.927962 -0.398902 -0.352040 0.961925 -0.563839 -0.412111 0.330055 -0.715436 0.022976 0.251279 
-7.803755 -1.576519 -0.889368 0.280890 0.343346 0.745372 -1.005797 -0.782713 0.955426 1.215177 0.889604 0.466424 
-8.210818 -1.075803 -0.796933 -0.997749 -0.977785 -0.176883 -1.164033 -0.194451 -0.726733 0.175477 -0.401732 -0.083493 
-6.802575 0.060089 -0.437867 0.346591 -0.157477 -0.705245 0.554939 -0.342371 -1.346059 0.131159 -0.086933 -0.502522 
-6.682841 -0.651033 -0.673827 0.119243 -0.413718 0.190436 0.089452 0.655629 -0.603736 -0.664246 -0.986980 -0.151395 
-7.995387 -1.881481 -1.846057 -1.269474 -1.546298 -0.029336 -0.307751 -0.160171 -0.288132 0.086478 -0.094169 -0.158728 
-8.458666 -1.321201 0.047127 -1.147268 -0.648321 0.568998 -1.134940 -0.654701 -0.547073 1.002509 -0.336089 0.812584 
-7.140896 -0.684577 -0.027730 -0.192541 -0.600926 -0.619672 0.503730 -0.424583 -0.144446 0.358922 -0.925812 -0.584141 
-8.603468 -0.971423 -1.755346 -1.346914 -0.305684 0.891270 1.146222 1.471673 -0.630300 0.218963 -0.640111 -0.515433 
-8.611989 -2.297011 -2.306571 -1.173475 0.444015 0.211021 0.495437 1.315949 0.823958 0.343836 -0.027572 0.031297 
-7.690459 -1.596134 -0.736547 -0.024216 -0.049727 -0.183262 -0.346875 0.485079 -0.153771 0.226409 1.146754 1.222333 
-6.746003 -0.484759 0.278209 0.855023 -0.378003 -0.530640 0.444228 0.276219 -1.162606 -1.131147 -0.583285 -0.120231 
-7.989610 -1.015004 0.327444 -0.813717 -0.322750 0.259522 1.098200 -0.419430 -0.703901 0.179633 0.651773 0.483867 
-8.524158 -1.224563 -0.524803 -0.469939 -0.175303 -0.360554 -0.310442 -0.442504 0.358723 0.167541 -0.418054 -0.875139 
-9.244253 -1.513926 -0.730733 -0.295701 0.047209 0.073367 -0.369798 -0.019991 0.173780 0.215899 0.054059 -0.219468 
-9.159098 -0.103569 -1.154341 -0.825489 -0.729481 -0.110051 0.503539 0.479785 -0.328176 0.359863 0.616022 0.420963 
-7.056696 -0.574056 -0.956940 -0.214663 0.208641 -0.559683 -0.110420 0.028081 0.338650 0.256105 -0.154623 -0.187172 
-7.654539 -1.146279 -1.702655 0.387144 0.280111 -0.054416 0.057794 -0.660567 -0.119072 -1.014123 -0.400467 0.422057 
-8.215772 -0.973490 -1.811596 0.219279 -0.115540 0.241855 0.515484 -0.015059 0.156072 0.836938 -0.138799 0.256036 
-7.180992 -2.550376 -1.259915 0.267828 -0.669809 -0.259582 0.114492 0.137000 -0.113139 0.291944 0.202441 -0.629074 
-8.474638 -2.788688 -2.897847 -1.561241 -0.685136 -0.656521 -0.560534 -0.125105 0.178762 -0.118446 0.268406 -0.475661 
-7.451922 -1.233101 -1.984806 -1.516701 -1.180948 -0.924088 -1.131866 0.041030 -0.805066 -0.632982 0.593828 -0.290412 
-8.299608 -1.594996 -1.374758 -0.502540 -1.314453 -1.277178 -1.049164 -0.474271 -1.223547 -0.118493 0.433164 0.076373 
-7.891717 -0.849191 -1.109822 -0.530276 -1.379189 -0.714559 -0.056294 -0.028893 -0.795645 0.863714 0.645492 -0.393419 
