-6.677992 -3.058814 -2.364336 -1.601467 -2.133581 -1.327599 -0.801780 -0.778175 -0.798606 -0.881277 -0.325808 -0.308327 
-6.165885 -2.184644 -2.587490 -2.059159 -2.751692 -1.291043 -2.446043 -0.415763 -0.598987 -1.295796 -0.218557 -1.162164 
-5.993918 -2.422917 -3.597755 -4.171687 -3.380147 -1.284064 -1.911043 -0.887918 -0.660813 -2.350450 -1.837481 -1.823545 
-6.530315 -1.148927 -1.991910 -2.590440 -2.798449 -1.287176 -2.479880 -1.322562 -0.516668 -2.557875 -0.775911 -0.868733 
-6.320039 -3.055847 -1.992894 -2.185393 -1.970204 -1.505118 -2.934667 -2.114851 -1.118114 -2.192613 -0.402556 -0.079173 
-6.142056 -2.463419 -1.774905 -2.042100 -1.705186 -1.437074 -2.448822 -2.600435 -1.504214 -1.007692 -0.620947 0.607559 
-8.464039 -1.690953 -0.570786 -1.778695 -1.852218 0.304119 -0.778375 -1.137382 -1.800728 -0.707866 0.733224 0.823380 
-8.279925 -1.437593 -1.458974 -1.627759 -2.380836 -0.338153 -0.442385 -0.905369 -1.027193 -0.604866 0.397036 0.819035 
-7.607087 -2.489293 -1.997470 -2.367688 -2.302236 0.807127 -0.517066 -1.379270 -1.158182 -0.531705 -0.898665 0.225923 
-9.678384 -3.110644 -2.545811 -2.882193 -1.840095 0.346816 -0.814873 -1.513521 -0.533592 -0.531339 0.601183 1.300149 
-8.401497 -0.976020 -1.248607 -1.918419 -1.565925 -0.768568 -1.058966 -1.028261 -0.821495 -0.494670 -0.022719 1.061692 
-6.901315 -0.372546 -1.681621 -1.972150 -1.181843 -1.036648 -1.233261 -0.633687 -0.477134 -0.888186 -0.416968 -0.175396 
-7.647919 -3.254897 -2.111017 -1.370391 -1.988138 -1.062808 -0.535080 0.222942 -1.423514 -1.388658 -1.033981 -1.630477 
-9.020325 -4.318230 -2.069671 -1.692923 -3.479181 -1.703736 -0.848849 -1.068793 -1.965345 -2.142322 -1.259576 -1.119482 
-8.876459 -4.124246 -2.366596 -2.152196 -2.215936 -0.997454 -0.054091 -0.686914 -0.566444 -1.225533 -1.661201 -1.459732 
-8.784090 -3.558961 -2.641137 -1.141186 -0.826464 -0.430853 -1.121469 -2.461099 -1.542759 -0.572549 -0.419241 -0.396999 
-7.809235 -2.689122 -2.370530 -1.518361 -1.893103 -1.267500 -0.406783 -1.260379 -1.481043 0.120221 -0.045851 -1.178714 
-7.840495 -2.337968 -1.997052 -2.327495 -1.640587 -0.677617 -2.387140 -1.448253 -0.854347 0.666755 -0.293981 -1.172091 
-6.701741 -2.315295 -2.653579 -2.596250 -2.572377 -1.067127 -0.806257 -0.446739 -0.185863 0.134164 -0.072123 -0.562501 
-7.903216 -2.116987 -2.150179 -2.582844 -2.079783 -0.496795 0.217764 -0.952182 0.057244 0.201292 -0.163518 -0.310967 
-8.453306 2.671324 -2.326326 1.407896 -2.080466 1.042149 -0.292843 0.316153 0.163170 -0.141185 -0.038480 -0.457037 
-14.134947 7.370670 -6.983005 4.898610 -4.817780 2.876117 -1.181210 0.557989 0.166872 -0.876821 0.361625 -0.895358 
-16.027170 8.396407 -7.098163 2.685137 -1.691746 1.570046 0.152621 0.314478 -1.333871 -0.749986 -0.265414 -0.781602 
-14.281042 4.182931 -6.859920 1.164099 -2.520570 -1.209149 1.440852 2.235328 -1.761415 -0.072298 -0.073029 -0.530599 
-13.708530 3.347454 -5.971451 0.908551 -1.982133 -0.568248 1.189028 1.239724 -2.073678 1.302698 -0.099821 -0.655971 
-16.091779 1.573357 -4.857496 0.107488 -2.833078 0.833437 1.429175 0.103352 -1.979982 0.546531 -0.449309 -1.397501 
-16.596221 1.544186 -3.048664 -1.333069 -3.904352 0.663835 1.861023 1.257849 -2.178158 -0.804175 -0.283866 0.600763 
-16.281463 2.461256 -3.028485 0.048244 -2.565856 -0.424571 0.011337 1.271770 -1.311937 -0.139204 -0.339338 -0.835907 
-15.818627 0.850061 -4.739040 0.039483 -0.924212 1.093088 -1.203133 -1.127703 -1.310651 0.809119 1.027038 -2.073653 
-15.155194 0.105632 -6.579665 0.119049 -0.855672 0.645908 -1.633831 -0.607287 -1.657428 0.381714 0.076137 -0.558141 
-13.942876 -0.065394 -4.832825 0.974943 -0.944927 0.965822 -0.051746 0.286238 -0.892477 0.263818 -0.302617 0.179201 
-15.481976 -1.678655 -4.074795 1.525332 0.203099 0.935478 -0.823736 -0.533285 -2.212228 -0.343035 -0.366637 -0.113921 
-15.013410 0.029528 -4.282366 0.966469 0.040396 0.251661 -0.915120 0.359327 -2.135408 -0.038803 -0.012495 -0.917700 
-13.533835 2.286305 -5.357325 0.557775 0.847485 -1.003777 -1.169682 1.768233 0.157215 -1.961142 0.752797 1.180564 
-14.211598 0.175697 -7.377575 -3.619203 -2.595237 -1.630300 -1.104410 1.281356 -0.224704 -0.271531 -0.741281 0.819279 
-10.966706 -0.513554 -5.094643 -1.390541 -2.982141 -1.212520 1.714532 2.616842 -0.843377 0.355974 0.174686 0.086798 
-4.975312 -2.104774 -7.802044 -2.214327 -2.441339 -2.145844 0.904308 -0.185552 -2.132687 -0.834230 -0.981797 -0.391910 
-4.160153 -2.592396 -7.557593 -0.704209 -2.120460 -2.221376 2.491066 0.142202 -2.952406 -1.635666 -0.091857 0.542323 
-5.238129 -4.051301 -7.125407 -0.148536 -1.042099 -2.601984 1.545012 -0.686832 -3.332776 -2.671294 -0.585689 0.010158 
-5.251971 -3.979804 -7.967670 0.317971 -0.470336 -1.877169 0.582940 -0.945541 -2.862033 -3.250840 -1.588147 0.259458 
-3.643084 -3.288788 -8.326795 -0.330080 1.066990 -1.304159 -0.397475 -1.056499 -2.040398 -2.389460 -0.808670 0.111671 
-3.283127 -4.854379 -8.569595 -1.498618 0.389462 -2.325674 -0.731931 -2.068151 -2.220927 -2.153486 -1.122330 0.174482 
-3.107210 -5.832524 -8.875670 -0.733021 0.674033 -1.861950 -0.229454 -1.165027 -2.289433 -1.729300 -0.781515 1.187126 
-2.778463 -3.716512 -11.517444 -0.139622 1.633293 -2.165028 -0.349371 -1.680341 -2.040595 -1.702681 -1.142192 0.749503 
-3.822461 -4.406847 -11.116008 -1.076006 2.319258 -2.713880 -0.443945 -0.768272 -1.990513 -1.783540 -0.621427 0.430841 
-2.536438 -2.827171 -12.727038 -1.467243 1.785925 -3.569579 -0.095274 -1.779368 -1.302734 -2.742185 -1.273338 0.043541 
1.620395 -3.029938 -12.353222 -2.583511 1.200911 -3.386675 0.112728 -0.809859 -0.007048 -2.958970 -0.988381 -0.823201 
3.233810 -1.768156 -8.986082 -1.605842 0.233968 -4.628225 1.395401 1.209246 -0.173171 -1.301945 -0.501412 -1.491798 
2.554279 -0.974114 -7.358566 -0.767913 0.444848 -3.850376 0.537867 -0.346047 -2.833794 -1.215828 -0.545859 0.177533 
2.599961 -3.346568 -7.676708 1.075284 1.882186 -2.838674 -0.006791 -1.911392 -2.635645 -2.129773 -0.829339 0.327312 
0.352653 -4.495484 -6.780414 1.483998 0.321046 -2.932128 -1.479207 -2.000710 -1.194555 -2.365330 0.930330 -0.185967 
0.725126 -4.499858 -6.191504 0.225278 -0.150886 -2.796004 -0.915943 -1.983474 -1.832558 -2.248216 0.763424 0.424467 
0.141906 -5.364461 -6.873853 -1.649191 -0.576348 -0.943071 -0.846575 -2.321575 -0.179836 -1.757602 0.600242 0.947353 
-0.771100 -5.984480 -6.340413 -3.107184 -1.738884 -0.898784 -0.396478 -1.632136 -0.438015 -1.669092 0.721909 0.933892 
-3.639621 -9.110992 -7.506556 -2.101139 -1.530030 0.179142 -1.421539 -1.135527 -0.215274 -1.880660 -0.230955 0.456226 
-5.396067 -8.413464 -6.485461 -2.017699 -0.329916 1.991194 -1.428602 -1.321338 0.758587 0.153667 -0.182637 0.790848 
-6.137143 -6.945426 -5.214384 -1.865149 -0.030737 1.213662 -2.621665 -1.045245 1.852309 0.616978 0.256115 0.062746 
-5.672788 -4.795077 -4.217218 -2.341246 -0.316719 0.723081 -2.460198 -0.622928 -0.671157 0.020706 0.186785 0.228674 
-5.432873 -3.520228 -2.547018 -1.587282 -1.868839 -0.579628 -1.533867 -1.456729 -0.695581 0.106332 -0.403465 0.619521 
-5.059234 -3.146791 -2.669271 -0.491856 -1.069252 -0.835082 -2.492208 -1.656674 -1.246934 -1.437228 -0.634954 0.752907 
-5.013277 -1.410108 -1.723714 0.501060 -0.629089 -0.061890 -4.115226 -1.947287 -2.084150 -2.374228 -0.519793 0.143535 
-5.479515 -1.238305 -1.254371 -2.803659 -1.187459 0.969946 -2.009542 -0.913569 -0.903522 -1.270701 -0.937579 -0.353841 
-5.724680 -2.946701 -2.013341 -2.178167 -1.803930 0.265852 -2.153152 -1.535218 -0.928253 -0.196685 -1.426159 0.010642 
-11.255437 -5.904210 -5.484640 -4.982474 -2.791861 -1.954671 -1.425740 0.820565 0.871294 -0.137184 0.590040 0.291804 
-10.260700 -5.277570 -5.323311 -4.502393 -3.531160 -2.693965 -1.518729 0.703880 1.149262 -0.555404 0.479538 -0.257594 
-7.541581 -4.437215 -4.446582 -2.550471 -2.421168 -1.162431 0.310323 1.173003 1.024636 0.285750 0.070769 -0.410733 
-7.126475 -4.583183 -5.025845 -3.693754 -3.182706 -0.181155 0.312711 -0.083934 -0.345593 -0.935419 -0.012923 -0.837103 
-5.581421 -4.501017 -2.505133 -2.058774 -3.414306 -0.185675 0.039220 0.141967 -0.319149 -1.181970 -0.295994 -0.675887 
-5.447154 -4.129275 -1.672076 -1.966072 -2.364571 -0.734070 -0.673127 -0.429570 -0.529926 0.542782 -0.297879 -0.889645 
-4.994019 -2.921255 -1.683779 -3.364998 -1.870423 -0.030930 -0.592214 -0.485596 -1.176165 0.255422 -0.320025 0.345106 
-6.263115 -3.397574 -2.842366 -2.995415 -0.568097 0.585289 -0.661205 -0.144208 -0.382180 -0.510373 -1.029265 -0.042252 
-6.829433 -3.181674 -1.177580 -1.837245 0.274009 0.788557 -0.604584 -0.979025 -1.028690 -0.406659 -0.234287 -0.390033 
-5.704030 -3.047610 -1.718565 -3.778111 -2.529640 0.720009 0.287518 -0.860437 -1.021226 0.358620 0.001644 -0.805149 
-4.107095 -0.795916 -1.090565 -2.907824 -3.173988 -0.911031 -0.307765 -0.840628 -0.484306 -0.837612 -1.875724 -1.221582 
-4.059197 -3.100327 -3.162314 -4.103182 -3.450326 -0.535013 -1.584844 0.479108 0.705360 -0.424024 -0.907935 -0.247014 
-5.757987 -3.732939 -3.464879 -4.203814 -2.879564 -0.219036 -1.708251 0.514453 -0.008654 1.913905 0.505493 -0.409144 
-7.824241 -3.129517 -3.385559 -2.693875 -0.745196 -1.281502 -2.161055 0.566876 0.708024 2.219173 0.891653 -0.543780 
-9.098089 -4.243441 -4.103744 -1.578957 0.849861 -0.692065 -2.702825 -1.061985 -0.690079 -0.057331 -0.052313 0.274126 
-8.424377 -2.498568 -2.624093 -1.353452 0.520836 0.468542 -1.457990 -1.620690 -2.261768 0.402375 1.437453 1.196575 
-5.607107 -2.368506 -1.598119 -0.889150 -0.321273 -1.044289 -2.252543 -3.001324 -0.994091 1.153604 -0.543820 0.249466 
-4.750782 -0.851869 -2.577402 -0.687811 -1.556917 -2.023986 -2.785688 -2.612883 -1.095558 0.030508 -0.532869 -0.117647 
-4.853003 -0.997909 -2.859179 -0.676687 -0.960084 -0.670194 -1.947490 -1.991526 -1.856958 -1.787631 -0.225344 0.017368 
