-1.899844 0.590656 0.252475 0.995009 -0.143555 0.390400 0.084818 0.031368 -0.255233 -0.083737 -0.061661 0.358798 
-1.924608 0.734242 0.468077 0.167913 -0.708936 0.599278 0.200762 1.134464 0.141589 -0.762561 0.566287 -0.313040 
-2.005818 0.921321 -0.740122 -0.359288 -0.134319 1.281201 0.336913 0.980414 1.077629 -0.453299 -0.322712 -0.541209 
-2.305174 2.016255 0.529041 -0.335550 -0.402258 1.259824 -0.257476 0.643408 0.873158 -0.861039 0.605420 0.306052 
-2.394405 0.778641 0.593233 -0.034722 0.934249 0.664932 -0.875086 -0.179122 0.578054 -0.489161 0.549609 0.789597 
-1.589618 1.521417 0.603331 -0.003671 1.033542 0.550569 -0.564025 -0.270199 -0.032045 -0.154666 -0.204960 1.325096 
-4.082027 1.582429 1.609670 0.298999 0.257139 1.644857 0.367007 0.201550 -0.804357 -0.457695 0.512567 0.961774 
-3.360933 1.559338 0.828850 0.103610 -0.358427 0.982470 1.059241 0.411637 -0.767666 0.191289 0.258304 0.760142 
-1.957261 1.046988 0.453035 0.515101 -0.517047 1.789218 0.248763 0.412913 0.295544 0.616776 0.050201 0.599602 
-2.845351 1.291425 1.380392 0.615724 0.418801 1.872427 -0.432684 -0.861150 -0.244131 0.587296 1.112626 1.106089 
-3.454533 1.482424 1.169472 0.764439 0.423077 0.374336 -0.108490 0.479467 0.740075 0.705355 0.463672 0.785668 
-3.341839 1.988456 0.102326 0.015958 0.371322 -0.327785 0.064108 0.922741 0.066279 0.261992 0.838356 0.632563 
-2.996717 1.244964 1.064880 1.175179 0.207745 0.384537 0.547070 1.214721 0.215359 -0.125334 0.562907 -0.360980 
-2.214173 0.642646 0.730459 1.191698 -0.716236 0.713915 0.673859 0.584577 -0.090843 -0.447739 0.282583 -0.342315 
-3.367000 0.470352 0.844211 0.665925 -0.533205 0.696889 1.286691 0.263229 -0.048519 0.034062 0.220851 -0.161174 
-3.246701 0.587675 0.353856 1.253590 0.973018 0.540195 0.234082 -0.518059 0.112412 0.629546 0.729970 0.966418 
-2.923020 1.383085 0.615007 1.731275 0.236755 0.193359 0.755576 -0.149914 -0.741466 1.523952 0.811338 0.004387 
-2.298478 1.637531 0.136118 0.056913 0.355420 1.007502 -0.831458 -0.367521 -0.545191 1.308332 0.098535 0.052939 
-2.423798 1.220461 0.038041 0.418058 0.088295 0.947476 -0.568280 -0.145909 1.026330 1.065298 0.178284 0.051028 
-3.120196 1.833189 0.947253 0.733855 0.055665 0.635213 0.436832 0.056493 0.517695 0.799320 0.465910 0.036868 
-7.140030 4.192503 -1.225901 2.364818 -0.920822 1.663817 0.411522 0.894093 0.763877 0.305134 -0.100515 -0.094222 
-11.837131 9.050960 -5.672488 5.917401 -3.990025 3.946474 -0.421140 0.850352 0.416403 -0.503892 0.901008 -0.618032 
-15.025970 9.165510 -6.428699 3.366079 -1.111584 2.013820 0.461392 0.521020 -1.096179 -0.463189 0.048796 -0.488807 
-14.823474 3.722253 -7.284630 0.813646 -2.807146 -1.446725 1.267235 2.066222 -1.968030 -0.279187 -0.297010 -0.773041 
-14.478402 2.748401 -6.548864 0.490193 -2.295307 -0.792504 1.126550 1.153083 -2.218108 1.208823 -0.254824 -0.866437 
-15.886891 1.773458 -4.664003 0.291840 -2.662230 0.985210 1.567823 0.221657 -1.863382 0.648255 -0.352621 -1.308030 
-16.499039 1.737909 -2.841866 -1.201914 -3.822795 0.795211 2.078506 1.451783 -2.095863 -0.797145 -0.232682 0.730713 
-16.434462 2.336995 -3.137491 -0.035061 -2.620357 -0.463656 -0.009149 1.253755 -1.329486 -0.144920 -0.328303 -0.816255 
-15.538337 1.114561 -4.540115 0.187749 -0.803199 1.191293 -1.134014 -1.089298 -1.280119 0.846923 1.059329 -2.064462 
-14.889311 0.386522 -6.294960 0.409618 -0.542964 0.961990 -1.308478 -0.275551 -1.305770 0.749613 0.450866 -0.186899 
-14.816174 -0.760594 -5.395052 0.572036 -1.253247 0.683177 -0.336134 -0.025553 -1.189294 0.038031 -0.427634 0.152282 
-15.253899 -1.423479 -3.821422 1.793157 0.547144 1.337110 -0.383283 -0.091476 -1.806593 -0.006810 -0.093136 0.116085 
-14.778295 0.428359 -3.785020 1.587822 0.767150 0.988233 -0.207558 0.979016 -1.594955 0.471779 0.510619 -0.399372 
-13.275406 2.517541 -5.174738 0.687662 0.922588 -0.959135 -1.119209 1.814861 0.181388 -1.950289 0.778503 1.205322 
-13.899761 0.483098 -7.077560 -3.326964 -2.311743 -1.361703 -0.840826 1.532434 0.013543 -0.044854 -0.518058 1.037545 
-10.975628 -0.526555 -5.106196 -1.385773 -2.962955 -1.189554 1.736924 2.637445 -0.819876 0.375062 0.195937 0.103000 
-5.027143 -2.158088 -7.854233 -2.262345 -2.485715 -2.191724 0.860216 -0.229999 -2.170625 -0.873788 -1.015609 -0.420325 
-4.179561 -2.617184 -7.582998 -0.722742 -2.142142 -2.244668 2.472180 0.119964 -2.974787 -1.654786 -0.108086 0.527079 
-5.331949 -4.148160 -7.228515 -0.244033 -1.134087 -2.698787 1.460221 -0.772879 -3.417395 -2.751586 -0.662827 -0.061524 
-5.166733 -3.904219 -7.901593 0.377511 -0.419763 -1.826712 0.638489 -0.892655 -2.803725 -3.187554 -1.532577 0.318392 
-3.868764 -3.502872 -8.520326 -0.512836 0.893686 -1.457659 -0.549861 -1.217737 -2.193399 -2.554374 -0.976657 -0.038987 
-3.104218 -4.665708 -8.355584 -1.315748 0.592664 -2.124051 -0.543203 -1.864057 -2.023659 -1.962263 -0.919844 0.361641 
-3.338123 -6.073460 -9.102101 -0.957983 0.464187 -2.075440 -0.427517 -1.359313 -2.469498 -1.901455 -0.942932 1.041320 
-2.931531 -3.859856 -11.650892 -0.301054 1.500633 -2.296209 -0.520059 -1.804405 -2.164755 -1.861851 -1.265956 0.627141 
-3.989765 -4.577250 -11.243621 -1.208059 2.180532 -2.807406 -0.527538 -0.854346 -2.021248 -1.792161 -0.637009 0.453692 
-2.309209 -2.601203 -12.463266 -1.243370 2.006087 -3.317528 0.123096 -1.577596 -1.069667 -2.532511 -1.082329 0.248203 
1.660886 -2.991849 -12.353147 -2.550776 1.235834 -3.379310 0.140754 -0.785297 0.020128 -2.937137 -0.951736 -0.788844 
2.326443 -2.586144 -8.385387 -2.257908 -0.581594 -4.159627 0.888119 0.624114 0.046307 -1.541448 -0.974317 -1.448513 
2.097538 -1.246344 -6.502447 -1.071074 0.293714 -3.163452 0.307613 -0.372970 -2.421144 -1.313189 -0.437234 0.397011 
2.546643 -3.354084 -7.468284 1.013883 1.935295 -2.701419 -0.040134 -1.841121 -2.555343 -2.137914 -0.761918 0.366420 
0.400552 -4.448920 -6.757088 1.545163 0.371568 -2.901524 -1.434531 -1.976298 -1.140210 -2.318666 0.980502 -0.127237 
0.877264 -4.357341 -6.038986 0.364584 -0.007723 -2.666835 -0.789165 -1.871431 -1.709674 -2.136692 0.880492 0.532247 
0.401621 -5.109205 -6.658571 -1.401264 -0.366422 -0.723297 -0.645410 -2.132616 -0.007947 -1.616985 0.718339 1.082876 
-0.285887 -5.461827 -5.838561 -2.623132 -1.229891 -0.427696 0.073691 -1.207001 -0.063187 -1.270530 1.026868 1.223136 
-2.338293 -7.820134 -6.278227 -0.913181 -0.378867 1.255803 -0.365897 -0.122380 0.731693 -0.933079 0.631225 1.313254 
-4.137078 -7.195511 -5.375788 -1.005024 0.597390 2.735899 -0.772759 -0.780590 1.134987 0.495654 0.056140 1.024009 
-4.999258 -5.870703 -4.150628 -0.858377 0.835582 2.016103 -1.855903 -0.382751 2.510101 1.218141 0.812138 0.587007 
-4.252711 -3.561528 -2.972616 -1.169257 0.750492 1.752468 -1.460961 0.291467 0.212056 0.830894 0.980275 0.954551 
-4.539617 -2.583302 -1.558521 -0.622512 -0.919060 0.359656 -0.631042 -0.608156 0.008738 0.737486 0.132314 1.053791 
-4.038694 -2.157756 -1.556341 0.517812 -0.128374 0.100796 -1.708292 -0.894507 -0.529348 -0.738484 0.050187 1.291678 
-4.108972 -0.554318 -0.918005 1.386247 0.211840 0.680084 -3.343518 -1.160836 -1.366197 -1.679969 0.116806 0.807977 
-4.448344 -0.205461 -0.276405 -1.828751 -0.362650 1.813537 -1.160389 -0.189254 -0.255055 -0.607756 -0.245725 0.252246 
-4.360936 -1.550043 -0.673734 -0.836185 -0.435484 1.617202 -0.866803 -0.480329 0.192808 0.659557 -0.640091 0.658266 
-10.595299 -5.254139 -4.862069 -4.392434 -2.239196 -1.445634 -0.955972 1.253387 1.273670 0.235401 0.938177 0.629075 
-9.734953 -4.753387 -4.802505 -3.985439 -3.020288 -2.198554 -1.037498 1.176020 1.601082 -0.122060 0.895611 0.141151 
-7.967040 -4.792191 -4.689142 -2.676572 -2.439491 -1.061491 0.512849 1.436096 1.323808 0.624710 0.380947 -0.124608 
-6.284579 -3.735232 -4.164722 -2.832209 -2.326449 0.669512 1.199773 0.751877 0.458215 -0.180656 0.697523 -0.197342 
-4.819375 -3.681818 -1.730720 -1.264801 -2.595519 0.626143 0.892089 0.912922 0.469961 -0.413204 0.451697 0.073565 
-4.395870 -3.005098 -0.544726 -0.951553 -1.443109 0.103429 0.162359 0.385652 0.299381 1.355302 0.428331 -0.215761 
-3.960238 -1.814244 -0.622644 -2.376906 -0.895481 0.911782 0.336517 0.376645 -0.334774 1.045864 0.385239 1.019263 
-4.763999 -1.966850 -1.504142 -1.763471 0.498051 1.647778 0.305007 0.809476 0.492365 0.326080 -0.224115 0.712369 
-5.287303 -1.677680 0.133277 -0.509953 1.263714 1.826840 0.238816 -0.332241 -0.397867 0.062974 0.400736 0.182493 
-4.003172 -1.436030 -0.217013 -2.360888 -0.946473 2.045656 1.286183 0.026617 -0.073205 1.352442 0.862050 -0.054907 
-3.135713 0.267848 0.067861 -1.780105 -2.070615 0.097761 0.633637 0.078663 0.327790 0.092437 -0.996090 -0.325091 
-2.399885 -1.406083 -1.729901 -2.608982 -2.148140 0.533976 -0.348362 1.431820 1.727083 0.575612 0.053146 0.808863 
-3.484522 -1.647034 -1.526842 -2.398642 -1.458682 0.988452 -0.640062 1.370856 0.776874 2.612479 1.031201 0.128534 
-5.096450 -0.500910 -1.128766 -0.810592 0.848911 -0.080700 -1.372200 1.205463 1.399620 2.768740 1.328401 -0.184313 
-6.135138 -1.630964 -1.664056 0.590467 2.762239 0.835137 -1.079036 0.484240 0.639612 0.927699 0.932217 1.139077 
-6.290007 -0.654222 -0.864560 0.141853 1.675041 1.747931 -0.156902 -0.497048 -1.170475 1.419275 2.193215 2.055447 
-4.049291 -1.153887 -0.551653 -0.025179 0.721688 0.218486 -0.991437 -1.775229 -0.100145 1.783105 0.196572 0.910881 
-3.301295 0.390821 -1.409837 0.545874 -0.091985 -0.651295 -1.507257 -1.410914 -0.078536 0.893312 0.440241 0.610496 
-4.092967 -0.123701 -1.798915 0.367444 0.228454 0.360809 -0.833585 -1.040653 -1.058211 -0.988860 0.171939 0.456012 
